ANOVA
…
feedback_long_df

## # A tibble: 792 x 5
##    id    gender  time performance feedback
##    <fct> <fct>  <int>       <dbl> <fct>   
##  1 1     1          1        92.4 negative
##  2 1     1          2        93.2 negative
##  3 1     1          3        93.6 negative
##  4 1     1          4        90.5 negative
##  5 1     1          5        87.1 negative
##  6 1     1          6        90.2 negative
##  7 1     1          7        84.3 negative
##  8 1     1          8        84.3 negative
##  9 1     1          9        87.6 negative
## 10 1     1         10        81.2 negative
## # ... with 782 more rows
…
